課題

Login3.phpを作成
PHPのソースコードは一切なし
HTMLのみ

入力フォームの作成		( 送信先とかは今回は何でもOK )
ユーザ名:[                 ]		<- 文字列の入力欄
パスワード:[                 ]		<- パスワード入力欄
[ログイン]							<- 送信ボタン

\\192.168.43.253\ゲームエンジニア科\GE3B\PHP\提出\08_ログイン03
締め切り:7/8	17:00